dplyr Basics – YOUR NAME
…
4 The Pipe Operator |>

The pipe sends the output of one step into the next step.

Show the code

mpg |>
  select(manufacturer, model, year)

# A tibble: 234 × 3
   manufacturer model       year
   <chr>        <chr>      <int>
 1 audi         a4          1999
 2 audi         a4          1999
 3 audi         a4          2008
 4 audi         a4          2008
 5 audi         a4          1999
 6 audi         a4          1999
 7 audi         a4          2008
 8 audi         a4 quattro  1999
 9 audi         a4 quattro  1999
10 audi         a4 quattro  2008
# ℹ 224 more rows

This is equivalent to:

Show the code

select(mpg, manufacturer, model, year)

# A tibble: 234 × 3
   manufacturer model       year
   <chr>        <chr>      <int>
 1 audi         a4          1999
 2 audi         a4          1999
 3 audi         a4          2008
 4 audi         a4          2008
 5 audi         a4          1999
 6 audi         a4          1999
 7 audi         a4          2008
 8 audi         a4 quattro  1999
 9 audi         a4 quattro  1999
10 audi         a4 quattro  2008
# ℹ 224 more rows

✅ Use pipes to write code in a clear, step-by-step style.

5 select() (Choose Columns)

5.1 Select a few columns

Show the code

mpg |>
  select(manufacturer, model, displ, hwy)

# A tibble: 234 × 4
   manufacturer model      displ   hwy
   <chr>        <chr>      <dbl> <int>
 1 audi         a4           1.8    29
 2 audi         a4           1.8    29
 3 audi         a4           2      31
 4 audi         a4           2      30
 5 audi         a4           2.8    26
 6 audi         a4           2.8    26
 7 audi         a4           3.1    27
 8 audi         a4 quattro   1.8    26
 9 audi         a4 quattro   1.8    25
10 audi         a4 quattro   2      28
# ℹ 224 more rows

5.2 Select a range of columns

Show the code

mpg |>
  select(manufacturer:year)

# A tibble: 234 × 4
   manufacturer model      displ  year
   <chr>        <chr>      <dbl> <int>
 1 audi         a4           1.8  1999
 2 audi         a4           1.8  1999
 3 audi         a4           2    2008
 4 audi         a4           2    2008
 5 audi         a4           2.8  1999
 6 audi         a4           2.8  1999
 7 audi         a4           3.1  2008
 8 audi         a4 quattro   1.8  1999
 9 audi         a4 quattro   1.8  1999
10 audi         a4 quattro   2    2008
# ℹ 224 more rows

5.3 Remove columns

Show the code

mpg |>
  select(-cty, -hwy)

# A tibble: 234 × 9
   manufacturer model      displ  year   cyl trans      drv   fl    class  
   <chr>        <chr>      <dbl> <int> <int> <chr>      <chr> <chr> <chr>  
 1 audi         a4           1.8  1999     4 auto(l5)   f     p     compact
 2 audi         a4           1.8  1999     4 manual(m5) f     p     compact
 3 audi         a4           2    2008     4 manual(m6) f     p     compact
 4 audi         a4           2    2008     4 auto(av)   f     p     compact
 5 audi         a4           2.8  1999     6 auto(l5)   f     p     compact
 6 audi         a4           2.8  1999     6 manual(m5) f     p     compact
 7 audi         a4           3.1  2008     6 auto(av)   f     p     compact
 8 audi         a4 quattro   1.8  1999     4 manual(m5) 4     p     compact
 9 audi         a4 quattro   1.8  1999     4 auto(l5)   4     p     compact
10 audi         a4 quattro   2    2008     4 manual(m6) 4     p     compact
# ℹ 224 more rows

6 filter() (Choose Rows)

6.1 Filter by a condition

Show the code

mpg |>
  filter(class == "compact")

# A tibble: 47 × 11
   manufacturer model      displ  year   cyl trans drv     cty   hwy fl    class
   <chr>        <chr>      <dbl> <int> <int> <chr> <chr> <int> <int> <chr> <chr>
 1 audi         a4           1.8  1999     4 auto… f        18    29 p     comp…
 2 audi         a4           1.8  1999     4 manu… f        21    29 p     comp…
 3 audi         a4           2    2008     4 manu… f        20    31 p     comp…
 4 audi         a4           2    2008     4 auto… f        21    30 p     comp…
 5 audi         a4           2.8  1999     6 auto… f        16    26 p     comp…
 6 audi         a4           2.8  1999     6 manu… f        18    26 p     comp…
 7 audi         a4           3.1  2008     6 auto… f        18    27 p     comp…
 8 audi         a4 quattro   1.8  1999     4 manu… 4        18    26 p     comp…
 9 audi         a4 quattro   1.8  1999     4 auto… 4        16    25 p     comp…
10 audi         a4 quattro   2    2008     4 manu… 4        20    28 p     comp…
# ℹ 37 more rows

6.2 Multiple conditions with AND

Show the code

mpg |>
  filter(class == "compact", year == 2008)

# A tibble: 22 × 11
   manufacturer model      displ  year   cyl trans drv     cty   hwy fl    class
   <chr>        <chr>      <dbl> <int> <int> <chr> <chr> <int> <int> <chr> <chr>
 1 audi         a4           2    2008     4 manu… f        20    31 p     comp…
 2 audi         a4           2    2008     4 auto… f        21    30 p     comp…
 3 audi         a4           3.1  2008     6 auto… f        18    27 p     comp…
 4 audi         a4 quattro   2    2008     4 manu… 4        20    28 p     comp…
 5 audi         a4 quattro   2    2008     4 auto… 4        19    27 p     comp…
 6 audi         a4 quattro   3.1  2008     6 auto… 4        17    25 p     comp…
 7 audi         a4 quattro   3.1  2008     6 manu… 4        15    25 p     comp…
 8 subaru       impreza a…   2.5  2008     4 auto… 4        20    25 p     comp…
 9 subaru       impreza a…   2.5  2008     4 auto… 4        20    27 r     comp…
10 subaru       impreza a…   2.5  2008     4 manu… 4        19    25 p     comp…
# ℹ 12 more rows

6.3 OR conditions using %in%

Show the code

mpg |>
  filter(class %in% c("compact", "suv"))

# A tibble: 109 × 11
   manufacturer model      displ  year   cyl trans drv     cty   hwy fl    class
   <chr>        <chr>      <dbl> <int> <int> <chr> <chr> <int> <int> <chr> <chr>
 1 audi         a4           1.8  1999     4 auto… f        18    29 p     comp…
 2 audi         a4           1.8  1999     4 manu… f        21    29 p     comp…
 3 audi         a4           2    2008     4 manu… f        20    31 p     comp…
 4 audi         a4           2    2008     4 auto… f        21    30 p     comp…
 5 audi         a4           2.8  1999     6 auto… f        16    26 p     comp…
 6 audi         a4           2.8  1999     6 manu… f        18    26 p     comp…
 7 audi         a4           3.1  2008     6 auto… f        18    27 p     comp…
 8 audi         a4 quattro   1.8  1999     4 manu… 4        18    26 p     comp…
 9 audi         a4 quattro   1.8  1999     4 auto… 4        16    25 p     comp…
10 audi         a4 quattro   2    2008     4 manu… 4        20    28 p     comp…
# ℹ 99 more rows

7 arrange() (Sort Rows)

7.1 Sort ascending

Show the code

mpg |>
  arrange(hwy)

# A tibble: 234 × 11
   manufacturer model      displ  year   cyl trans drv     cty   hwy fl    class
   <chr>        <chr>      <dbl> <int> <int> <chr> <chr> <int> <int> <chr> <chr>
 1 dodge        dakota pi…   4.7  2008     8 auto… 4         9    12 e     pick…
 2 dodge        durango 4…   4.7  2008     8 auto… 4         9    12 e     suv  
 3 dodge        ram 1500 …   4.7  2008     8 auto… 4         9    12 e     pick…
 4 dodge        ram 1500 …   4.7  2008     8 manu… 4         9    12 e     pick…
 5 jeep         grand che…   4.7  2008     8 auto… 4         9    12 e     suv  
 6 chevrolet    k1500 tah…   5.3  2008     8 auto… 4        11    14 e     suv  
 7 jeep         grand che…   6.1  2008     8 auto… 4        11    14 p     suv  
 8 chevrolet    c1500 sub…   5.3  2008     8 auto… r        11    15 e     suv  
 9 chevrolet    k1500 tah…   5.7  1999     8 auto… 4        11    15 r     suv  
10 dodge        dakota pi…   5.2  1999     8 auto… 4        11    15 r     pick…
# ℹ 224 more rows

7.2 Sort descending

Show the code

mpg |>
  arrange(desc(hwy))

# A tibble: 234 × 11
   manufacturer model      displ  year   cyl trans drv     cty   hwy fl    class
   <chr>        <chr>      <dbl> <int> <int> <chr> <chr> <int> <int> <chr> <chr>
 1 volkswagen   jetta        1.9  1999     4 manu… f        33    44 d     comp…
 2 volkswagen   new beetle   1.9  1999     4 manu… f        35    44 d     subc…
 3 volkswagen   new beetle   1.9  1999     4 auto… f        29    41 d     subc…
 4 toyota       corolla      1.8  2008     4 manu… f        28    37 r     comp…
 5 honda        civic        1.8  2008     4 auto… f        25    36 r     subc…
 6 honda        civic        1.8  2008     4 auto… f        24    36 c     subc…
 7 toyota       corolla      1.8  1999     4 manu… f        26    35 r     comp…
 8 toyota       corolla      1.8  2008     4 auto… f        26    35 r     comp…
 9 honda        civic        1.8  2008     4 manu… f        26    34 r     subc…
10 honda        civic        1.6  1999     4 manu… f        28    33 r     subc…
# ℹ 224 more rows

7.3 Sort by multiple variables

Show the code

mpg |>
  arrange(class, desc(hwy))

# A tibble: 234 × 11
   manufacturer model    displ  year   cyl trans   drv     cty   hwy fl    class
   <chr>        <chr>    <dbl> <int> <int> <chr>   <chr> <int> <int> <chr> <chr>
 1 chevrolet    corvette   5.7  1999     8 manual… r        16    26 p     2sea…
 2 chevrolet    corvette   6.2  2008     8 manual… r        16    26 p     2sea…
 3 chevrolet    corvette   6.2  2008     8 auto(s… r        15    25 p     2sea…
 4 chevrolet    corvette   7    2008     8 manual… r        15    24 p     2sea…
 5 chevrolet    corvette   5.7  1999     8 auto(l… r        15    23 p     2sea…
 6 volkswagen   jetta      1.9  1999     4 manual… f        33    44 d     comp…
 7 toyota       corolla    1.8  2008     4 manual… f        28    37 r     comp…
 8 toyota       corolla    1.8  1999     4 manual… f        26    35 r     comp…
 9 toyota       corolla    1.8  2008     4 auto(l… f        26    35 r     comp…
10 toyota       corolla    1.8  1999     4 auto(l… f        24    33 r     comp…
# ℹ 224 more rows

8 mutate() (Create New Variables)

8.1 Create a new variable

Show the code

mpg |>
  mutate(hwy_per_liter = hwy / displ)

# A tibble: 234 × 12
   manufacturer model      displ  year   cyl trans drv     cty   hwy fl    class
   <chr>        <chr>      <dbl> <int> <int> <chr> <chr> <int> <int> <chr> <chr>
 1 audi         a4           1.8  1999     4 auto… f        18    29 p     comp…
 2 audi         a4           1.8  1999     4 manu… f        21    29 p     comp…
 3 audi         a4           2    2008     4 manu… f        20    31 p     comp…
 4 audi         a4           2    2008     4 auto… f        21    30 p     comp…
 5 audi         a4           2.8  1999     6 auto… f        16    26 p     comp…
 6 audi         a4           2.8  1999     6 manu… f        18    26 p     comp…
 7 audi         a4           3.1  2008     6 auto… f        18    27 p     comp…
 8 audi         a4 quattro   1.8  1999     4 manu… 4        18    26 p     comp…
 9 audi         a4 quattro   1.8  1999     4 auto… 4        16    25 p     comp…
10 audi         a4 quattro   2    2008     4 manu… 4        20    28 p     comp…
# ℹ 224 more rows
# ℹ 1 more variable: hwy_per_liter <dbl>

8.2 Create multiple new variables

Show the code

mpg |>
  mutate(
    hwy_per_liter = hwy / displ,
    cty_per_liter = cty / displ
  )

# A tibble: 234 × 13
   manufacturer model      displ  year   cyl trans drv     cty   hwy fl    class
   <chr>        <chr>      <dbl> <int> <int> <chr> <chr> <int> <int> <chr> <chr>
 1 audi         a4           1.8  1999     4 auto… f        18    29 p     comp…
 2 audi         a4           1.8  1999     4 manu… f        21    29 p     comp…
 3 audi         a4           2    2008     4 manu… f        20    31 p     comp…
 4 audi         a4           2    2008     4 auto… f        21    30 p     comp…
 5 audi         a4           2.8  1999     6 auto… f        16    26 p     comp…
 6 audi         a4           2.8  1999     6 manu… f        18    26 p     comp…
 7 audi         a4           3.1  2008     6 auto… f        18    27 p     comp…
 8 audi         a4 quattro   1.8  1999     4 manu… 4        18    26 p     comp…
 9 audi         a4 quattro   1.8  1999     4 auto… 4        16    25 p     comp…
10 audi         a4 quattro   2    2008     4 manu… 4        20    28 p     comp…
# ℹ 224 more rows
# ℹ 2 more variables: hwy_per_liter <dbl>, cty_per_liter <dbl>
…
Unique combinations:

Show the code

mpg |>
  distinct(manufacturer, year)

# A tibble: 30 × 2
   manufacturer  year
   <chr>        <int>
 1 audi          1999
 2 audi          2008
 3 chevrolet     2008
 4 chevrolet     1999
 5 dodge         1999
 6 dodge         2008
 7 ford          1999
 8 ford          2008
 9 honda         1999
10 honda         2008
# ℹ 20 more rows
…
